0.001,13,71.1111111111
0.01,13,71.1111111111
0.1,11,75.5555555556
1,8,82.2222222222
10,2,95.5555555556
100,1,97.7777777778
1000,1,97.7777777778
10000,1,97.7777777778
100000,1,97.7777777778
1000000,1,97.7777777778
--------------------------------
0.001,34,24.4444444444
0.01,31,31.1111111111
0.1,18,60.0
1,13,71.1111111111
10,9,80.0
100,2,95.5555555556
1000,2,95.5555555556
10000,3,93.3333333333
100000,2,95.5555555556
1000000,1,97.7777777778
--------------------------------
0.001,34,24.4444444444
0.01,34,24.4444444444
0.1,31,31.1111111111
1,18,60.0
10,16,64.4444444444
100,13,71.1111111111
1000,12,73.3333333333
10000,12,73.3333333333
100000,8,82.2222222222
1000000,7,84.4444444444
--------------------------------
0.001,34,24.4444444444
0.01,34,24.4444444444
0.1,18,60.0
1,18,60.0
10,13,71.1111111111
100,12,73.3333333333
1000,21,53.3333333333
10000,21,53.3333333333
100000,22,51.1111111111
1000000,22,51.1111111111
--------------------------------
